{
  "tasks": [
    {
      "id": "3",
      "text": "sasdsd 1"
    },
    {
      "id": "4",
      "text": "dt"
    },
    {
      "id": "99651138-37a5-4c54-83db-b71b69669878",
      "text": "asass"
    },
    {
      "id": "cc66e943-c0af-4082-a7a0-98d050b48150",
      "text": "ddds1"
    }
  ]
}